# --> Including file '/workspace/build/GAUSS/GAUSS_v53r1-release/Gen/LbPGuns/options/PGuns.py'
# <-- End of file '/workspace/build/GAUSS/GAUSS_v53r1-release/Gen/LbPGuns/options/PGuns.py'
# --> Including file '/cvmfs/lhcb.cern.ch/lib/lhcb/DBASE/Gen/DecFiles/v31r0/options/56000050.py'
# --> Including file '/cvmfs/lhcb.cern.ch/lib/lhcb/DBASE/Gen/DecFiles/v31r0/options/CaloAcceptance.py'
# <-- End of file '/cvmfs/lhcb.cern.ch/lib/lhcb/DBASE/Gen/DecFiles/v31r0/options/CaloAcceptance.py'
# <-- End of file '/cvmfs/lhcb.cern.ch/lib/lhcb/DBASE/Gen/DecFiles/v31r0/options/56000050.py'
# --> Including file '/workspace/build/GAUSS/GAUSS_v53r1-release/Sim/Gauss/tests/options/testGauss-NoOutput.py'
# <-- End of file '/workspace/build/GAUSS/GAUSS_v53r1-release/Sim/Gauss/tests/options/testGauss-NoOutput.py'
# --> Including file '/workspace/build/GAUSS/GAUSS_v53r1-release/Sim/Gauss/tests/options/testGauss-gen-10evts-defaults.py'
# <-- End of file '/workspace/build/GAUSS/GAUSS_v53r1-release/Sim/Gauss/tests/options/testGauss-gen-10evts-defaults.py'
# --> Including file '/workspace/build/GAUSS/GAUSS_v53r1-release/Sim/Gauss/options/Gauss-DEV.py'
# <-- End of file '/workspace/build/GAUSS/GAUSS_v53r1-release/Sim/Gauss/options/Gauss-DEV.py'
# --> Including file '/workspace/build/GAUSS/GAUSS_v53r1-release/Sim/Gauss/options/CaloOnly.py'
# <-- End of file '/workspace/build/GAUSS/GAUSS_v53r1-release/Sim/Gauss/options/CaloOnly.py'
# --> Including file '/workspace/build/GAUSS/GAUSS_v53r1-release/Sim/Gauss/tests/options/testGauss-QMTests.py'
# <-- End of file '/workspace/build/GAUSS/GAUSS_v53r1-release/Sim/Gauss/tests/options/testGauss-QMTests.py'
# applying configuration of Gauss

Ecut value = 5.0
Gauss run option selected for RICH  =   GTB
RICH simulation for the data in year =  2016
RICH simulation now configured
# WARNING: Moni Detector not known : magnet
# WARNING: No event data output produced
# WARNING: No histograms produced
# /***** User Gauss/Gauss ****************************************************************************
# |-B2Particle              = 'p'
# |-DatasetName             = 'Gauss'
# |-RandomGenerator         = 'Ranlux'
# |-DetectorGeo             = {'Detectors': ['Spd', 'Prs', 'Ecal', 'Hcal', 'Magnet']}
# |                         (default: {'Detectors': ['PuVeto', 'Velo', 'TT', 'IT', 'OT', 'Rich1', 'Rich2', 'Spd', 'Prs', 'Ecal', 'Hcal', 'Muon', 'Magnet']})
# |-Histograms              = 'NONE'  (default: 'DEFAULT')
# |-BeamEmittance           = 0.0037
# |-Phases                  = ['Generator', 'Simulation']  (default: ['Generator', 'Simulation'])
# |-Production              = 'PGUN'  (default: 'PHYS')
# |-TotalCrossSection       = 9.109999999999999e-24
# |-BeamPipe                = 'BeamPipeInDet'  (default: 'BeamPipeOn')
# |-ReplaceWithGDML         = [{'volsToReplace': [], 'gdmlFile': '', 'volsToInstrument': {}}]
# |                         (default: [{'volsToReplace': [], 'gdmlFile': '', 'volsToInstrument': {}}])
# |-InteractionPosition     = [0.459, -0.015, 0.5]  (default: [0.459, -0.015, 0.5])
# |-BeamLineAngles          = [-7.5e-05, 3.5000000000000004e-05]  (default: [-7.5e-05, 3.5000000000000004e-05])
# |-BunchRMS                = 82.03
# |-BeamHCrossingAngle      = -0.0005200000000000001
# |-PhysicsList             = {'Em': 'NoCuts', 'GeneralPhys': True, 'Other': '', 'Hadron': 'FTFP_BERT', 'LHCbPhys': True}
# |                         (default: {'Em': 'NoCuts', 'GeneralPhys': True, 'Other': '', 'Hadron': 'FTFP_BERT', 'LHCbPhys': True})
# |-RICHRandomHits          = False
# |-OutputType              = 'NONE'  (default: 'SIM')
# |-B2Momentum              = 3500000.0
# |-CurrentRICHSimRunOption = 'GTB'
# |-DetectorMoni            = {'Detectors': ['Spd', 'Prs', 'Ecal', 'Hcal', 'Magnet']}
# |                         (default: {'Detectors': ['PuVeto', 'Velo', 'TT', 'IT', 'OT', 'Rich1', 'Rich2', 'Spd', 'Prs', 'Ecal', 'Hcal', 'Muon']})
# |-DeltaRays               = True
# |-EnablePack              = True
# |-BeamBetaStar            = 3100.0
# |-BeamVCrossingAngle      = 0.0
# |-Luminosity              = 2.47e+18
# |-DataPackingChecks       = True
# |-UpgradeRICHSimRunOption = 'GTB'
# |-MergeGenFSR             = False
# |-Debug                   = False
# |-BeamMomentum            = 3500000.0
# |-SplitSim                = False
# |-DataType                = '2016'  (default: '')
# |-PostSimFilters          = []  (default: [])
# |-B1Particle              = 'p'
# |-UseGaussGeo             = True
# |-WriteFSR                = True
# |-DetectorSim             = {'Detectors': ['Spd', 'Prs', 'Ecal', 'Hcal', 'Magnet']}
# |                         (default: {'Detectors': ['PuVeto', 'Velo', 'TT', 'IT', 'OT', 'Rich1', 'Rich2', 'Spd', 'Prs', 'Ecal', 'Hcal', 'Muon', 'Magnet']})
# |-Redecay                 = {'active': False, 'rd_mode': 1, 'N': 100}
# |                         (default: {'active': False, 'rd_mode': 1, 'N': 100})
# |-SpilloverPaths          = []  (default: [])
# \----- (End of User Gauss/Gauss) -------------------------------------------------------------------
# GaussTape.ItemList    = ['/Event/Gen/Header#1', '/Event/MC/Header#1', '/Event/Gen/BeamParameters#1', '/Event/Gen/Collisions#1', '/Event/pSim/MCVertices#1', '/Event/pSim/MCParticles#1', '/Event/pSim/Spd/Hits#1', '/Event/pSim/Prs/Hits#1', '/Event/pSim/Ecal/Hits#1', '/Event/pSim/Hcal/Hits#1']
# GaussTape.OptItemList = ['/Event/Gen/HepMCEvents#1']
# WARNING: Default global tags will be overridden with the latest ones available for '2016' data type: {'DDDB': 'dddb-20190206-3', 'SIMCOND': 'sim-20170721-1-vc-md100'}
# WARNING: Latest unbound local tags on top of the latest global tags of 2016 data type(s) are added: {}
ApplicationMgr    SUCCESS
====================================================================================================================================
                                                   Welcome to Gauss version v53r1-release
                                          running on lbbuild52.cern.ch on Sat Feb 23 06:19:18 2019
====================================================================================================================================
ApplicationMgr       INFO Application Manager Configured successfully
ToolSvc.GitDDDB            INFO opening Git repository '/cvmfs/lhcb.cern.ch/lib/lhcb/git-conddb/DDDB.git'
ToolSvc.GitDDDB            INFO using commit 'dddb-20190206-3' corresponding to 6ccfd930ebf64b2415358a84dd3ad48b8c4d83f7
ToolSvc.GitSIMCOND         INFO opening Git repository '/cvmfs/lhcb.cern.ch/lib/lhcb/git-conddb/SIMCOND.git'
ToolSvc.GitSIMCOND         INFO using commit 'sim-20170721-1-vc-md100' corresponding to f9b3cf0aa6d9ee61d5ee0692f95e4584e52df268
DetectorPersistencySvc     INFO Added successfully Conversion service:XmlCnvSvc
DetectorDataSvc         SUCCESS Detector description database: git:/lhcb.xml

**************************************************************
 Geant4 version Name: geant4-10-04-patch-03    (8-February-2019)
                       Copyright : Geant4 Collaboration
                      References : NIM A 506 (2003), 250-303
                                 : IEEE-TNS 53 (2006), 270-278
                                 : NIM A 835 (2016), 186-225
                             WWW : http://geant4.org/
**************************************************************

SimulationSvc              INFO Loading simulation attributes file "/workspace/build/GAUSS/GAUSS_v53r1-release/Sim/Gauss/xml/SimulationRICHesOff.xml" ...
GiGa.ModularPL             INFO GiGaPhysListModular initializing
GiGa.ModularPL             INFO Registered GiGa.ModularPL.EmOpt1NoCutsPhysics
GiGa.ModularPL             INFO Registered GiGa.ModularPL.DecayPhysics
GiGa.ModularPL             INFO Registered GiGa.ModularPL.EmExtraPhysics
GiGa.ModularPL             INFO Registered GiGa.ModularPL.IonPhysics
GiGa.ModularPL             INFO Registered GiGa.ModularPL.ElasticPhysics
GiGa.ModularPL             INFO Registered GiGa.ModularPL.FTFP_BERTPhysics
GiGa.ModularPL             INFO Registered GiGa.ModularPL.StoppingPhysics
GiGa.ModularPL             INFO Registered GiGa.ModularPL.NeutronTrkCut
GiGa.ModularPL             INFO Registered GiGa.ModularPL.GiGaPhysConstructorOp
GiGa.ModularPL.GiGaPh...WARNING duplicated property name 'RichHpdSiDetEfficiency', see https://its.cern.ch/jira/browse/GAUDI-1023
GiGa.ModularPL             INFO Registered GiGa.ModularPL.GiGaPhysConstructorHpd
GiGa.ModularPL             INFO Registered GiGa.ModularPL.GiGaPhysUnknownParticles

-------- WWWW ------- G4Exception-START -------- WWWW -------
*** G4Exception : PART102
      issued by : G4ParticleDefintion::G4ParticleDefintion
Strange PDGEncoding
*** This is just a warning message. ***
-------- WWWW -------- G4Exception-END --------- WWWW -------


-------- WWWW ------- G4Exception-START -------- WWWW -------
*** G4Exception : PART102
      issued by : G4ParticleDefintion::G4ParticleDefintion
Strange PDGEncoding
*** This is just a warning message. ***
-------- WWWW -------- G4Exception-END --------- WWWW -------


-------- WWWW ------- G4Exception-START -------- WWWW -------
*** G4Exception : PART102
      issued by : G4ParticleDefintion::G4ParticleDefintion
Strange PDGEncoding
*** This is just a warning message. ***
-------- WWWW -------- G4Exception-END --------- WWWW -------


-------- WWWW ------- G4Exception-START -------- WWWW -------
*** G4Exception : PART102
      issued by : G4ParticleDefintion::G4ParticleDefintion
Strange PDGEncoding
*** This is just a warning message. ***
-------- WWWW -------- G4Exception-END --------- WWWW -------


-------- WWWW ------- G4Exception-START -------- WWWW -------
*** G4Exception : PART102
      issued by : G4ParticleDefintion::G4ParticleDefintion
Strange PDGEncoding
*** This is just a warning message. ***
-------- WWWW -------- G4Exception-END --------- WWWW -------


-------- WWWW ------- G4Exception-START -------- WWWW -------
*** G4Exception : PART102
      issued by : G4ParticleDefintion::G4ParticleDefintion
Strange PDGEncoding
*** This is just a warning message. ***
-------- WWWW -------- G4Exception-END --------- WWWW -------


-------- WWWW ------- G4Exception-START -------- WWWW -------
*** G4Exception : PART102
      issued by : G4ParticleDefintion::G4ParticleDefintion
Strange PDGEncoding
*** This is just a warning message. ***
-------- WWWW -------- G4Exception-END --------- WWWW -------

GiGa                       INFO Used Physics List Object is GiGaPhysListModular/GiGa.ModularPL
GiGa                       INFO Stacking Action Object is not required to be loaded
GiGa                       INFO Used Tracking Action Object is GiGaTrackActionSequence/GiGa.TrackSeq
GiGa                       INFO Used  Stepping Action Object is GiGaStepActionSequence/GiGa.StepSeq
GiGa                       INFO Used  Event Action Object is GiGaEventActionSequence/GiGa.EventSeq
GiGa                       INFO Used  Run Action Object is GiGaRunActionSequence/GiGa.RunSeq
EventClockSvc.FakeEve...   INFO Event times generated from 0 with steps of 0
EventClockSvc.FakeEve...   INFO Run numbers generated from 0 every 0 events
GaussGeo                   INFO ============================================
GaussGeo                   INFO =  useAlignment: 1
GaussGeo                   INFO =  alignAll: 1
GaussGeo                   INFO =  alignDetsNames:
GaussGeo                   INFO =    None
GaussGeo                   INFO ============================================
MagneticFieldSvc           INFO Opened magnetic field file : /workspace/build/DBASE/FieldMap/v5r7/cdf/field.v5r0.c1.down.cdf
MagneticFieldSvc           INFO Opened magnetic field file : /workspace/build/DBASE/FieldMap/v5r7/cdf/field.v5r0.c2.down.cdf
MagneticFieldSvc           INFO Opened magnetic field file : /workspace/build/DBASE/FieldMap/v5r7/cdf/field.v5r0.c3.down.cdf
MagneticFieldSvc           INFO Opened magnetic field file : /workspace/build/DBASE/FieldMap/v5r7/cdf/field.v5r0.c4.down.cdf
MagneticFieldSvc           INFO Map scaled by factor 1 with polarity internally used: -1 signed relative current: -1
GaussGeo.FieldMgr          INFO Minimum and Maximum Epsilon Step : 5e-05 0.001
GaussGeo                   INFO Global 'Field Manager' is set to 'GiGaFieldMgr/GaussGeo.FieldMgr'
GaussGeo                   INFO Global 'G4Field Manager' is set to 'G4FieldManager'
GaussGeo                   INFO Global 'G4MagneticField' is set to 'GiGaMagFieldGlobal'
GaussGeo                   INFO Global 'G4MagIntegratorStepper' is set to 'G4ClassicalRK4'
RootHistSvc                INFO Writing ROOT histograms to: UndefinedROOTOutputFileName
HistogramPersistencySvc    INFO Added successfully Conversion service:RootHistSvc
HistogramDataSvc           INFO Added stream file:/cvmfs/lhcb.cern.ch/lib/lhcb/PARAM/ParamFiles/v8r27p1/data/gausscalo.root as GaussCalo
RFileCnv                   INFO opening Root file "/cvmfs/lhcb.cern.ch/lib/lhcb/PARAM/ParamFiles/v8r27p1/data/gausscalo.root" for reading
GaussGeo.ZeroField         INFO createFieldMgr(): null magnetic field
GaussGeo                   INFO ================================
GaussGeo                   INFO =    Converted objects
GaussGeo                   INFO =
GaussGeo                   INFO =    DetElements : 	7
GaussGeo                   INFO =    Elements : 	101
GaussGeo                   INFO =    LAssemblies : 	3
GaussGeo                   INFO =    LVolumes : 	228
GaussGeo                   INFO =    Mixtures : 	34
GaussGeo                   INFO =
GaussGeo                   INFO =    Constructed figures
GaussGeo                   INFO =
GaussGeo                   INFO =    G4Box : 	353
GaussGeo                   INFO =    G4Polycone : 	10
GaussGeo                   INFO =    G4Trap : 	6
GaussGeo                   INFO =    G4Tubs : 	31
GaussGeo                   INFO ================================
GiGa                       INFO GiGa User Interface session is not required to be launched
GiGa                       INFO Visualisation Manager is not required to be created.
RndmGenSvc.Engine          INFO Generator engine type:CLHEP::RanluxEngine
RndmGenSvc.Engine          INFO Current Seed:1234567 Luxury:3
RndmGenSvc.Engine          INFO This is the GEANT4 engine!
RndmGenSvc                 INFO Using Random engine:HepRndm::Engine<CLHEP::RanluxEngine>
TimingAuditor.TIMER        INFO This machine has a speed about   2.78 times the speed of a 2.8 GHz Xeon.
GaussSequencer             INFO Member list: GaudiSequencer/Generator, GaudiSequencer/Simulation
ToolSvc.SequencerTime...   INFO This machine has a speed about   2.78 times the speed of a 2.8 GHz Xeon.
Generator                  INFO Member list: GaudiSequencer/GeneratorSlotMainSeq
GeneratorSlotMainSeq       INFO Member list: GenInit/GaussGen, ParticleGun, GaudiSequencer/GenMonitor
GaussGen                SUCCESS ==================================================================
GaussGen                SUCCESS Requested to process 10 events
GaussGen                SUCCESS ==================================================================
GaussGen                   INFO Create BeamForInitialization
GaussGen                   INFO Beam Parameters :
GaussGen                   INFO Energy = 3.5 TeV
GaussGen                   INFO Bunch length RMS = 82.03 mm
GaussGen                   INFO Normalized emittance = 0.0037 mm
GaussGen                   INFO Revolution frequency = 11.245 kHz
GaussGen                   INFO Total cross-section assumed = 91.1 mb
GaussGen                   INFO Horizontal crossing angle = -0.52 mrad
GaussGen                   INFO Vertical crossing angle = 0 mrad
GaussGen                   INFO Horizontal beam line angle = -0.075 mrad
GaussGen                   INFO Vertical beam line angle = 0.035 mrad
GaussGen                   INFO beta star = 3.1 m
GaussGen                   INFO Bunch spacing = 50 ns
GaussGen                   INFO Beam spot = (0.459,-0.015,0.5) mm
GaussGen                   INFO Luminosity = 2.47e+29 /cm2/s
GaussGen                   INFO Nu = 2.00104
GaussGen                   INFO emittance = 9.91888e-07
GaussGen                   INFO Luminous region = ( 0.03921, 0.03921, 58.004 ), mm
ParticleGun.FlatNPart...   INFO Number of particles per event chosen randomly between 1 and 1
ParticleGun.MomentumR...   INFO Particle type chosen randomly from : gamma
ParticleGun.MomentumR...   INFO Momentum range: 50 GeV <-> 50 GeV
ParticleGun.MomentumR...   INFO Theta range: 0.037 rad <-> 0.24 rad
ParticleGun.MomentumR...   INFO Phi range: 0 rad <-> 6.28319 rad
ParticleGun             SUCCESS ==================================================================
ParticleGun             SUCCESS Requested to generate EventType 56000050
ParticleGun             SUCCESS ==================================================================
GenMonitor                 INFO Member list: GenMonitorAlg
GenMonitorAlg              INFO Monitor will be applied to all events in container /Event/Gen/HepMCEvents
Simulation                 INFO Member list: GiGaDataStoreAlgorithm/GiGaStore, GaudiSequencer/MainEventSeq
MainEventSeq               INFO Member list: SimInit/MainEventGaussSim, GaudiSequencer/MainSimulation
MainEventGaussSim       SUCCESS ==================================================================
MainEventGaussSim       SUCCESS Requested to process 10 events
MainEventGaussSim       SUCCESS ==================================================================
MainSimulation             INFO Member list: GaudiSequencer/MakeMainSim, GaudiSequencer/SimMonitor
MakeMainSim                INFO Member list: GenerationToSimulation/GenToSim, GiGaFlushAlgorithm/GiGaFlush, GiGaCheckEventStatus/GiGaCheckEvent, SimulationToMCTruth/SimToMCTruth, GaudiSequencer/DetectorsHits, GaudiSequencer/MainEventDataPacking
DetectorsHits              INFO Member list: GetCaloHitsAlg/GetSpdHits, GetCaloHitsAlg/GetPrsHits, GetCaloHitsAlg/GetEcalHits, GetCaloHitsAlg/GetHcalHits
MainEventDataPacking       INFO Member list: PackMCParticle, PackMCVertex, DataPacking::Pack<LHCb::MCPrsHitPacker>/MCPrsHitPacker, DataPacking::Pack<LHCb::MCSpdHitPacker>/MCSpdHitPacker, DataPacking::Pack<LHCb::MCEcalHitPacker>/MCEcalHitPacker, DataPacking::Pack<LHCb::MCHcalHitPacker>/MCHcalHitPacker
SimMonitor                 INFO Member list: GiGaGetEventAlg/GiGaGetMainEvent, MCTruthMonitor/MainMCTruthMonitor, GiGaGetHitsAlg, GaudiSequencer/DetectorsMonitor, GaudiSequencer/DataUnpackTest
DetectorsMonitor           INFO Member list: MCCaloMonitor/SpdMonitor, MCCaloMonitor/PrsMonitor, MCCaloMonitor/EcalMonitor, MCCaloMonitor/HcalMonitor
DataUnpackTest             INFO Member list: UnpackMCVertex, UnpackMCParticle, CompareMCVertex, CompareMCParticle, DataPacking::Unpack<LHCb::MCSpdHitPacker>/UnpackSpdHits, DataPacking::Check<LHCb::MCSpdHitPacker>/CheckSpdHits, DataPacking::Unpack<LHCb::MCPrsHitPacker>/UnpackPrsHits, DataPacking::Check<LHCb::MCPrsHitPacker>/CheckPrsHits, DataPacking::Unpack<LHCb::MCEcalHitPacker>/UnpackEcalHits, DataPacking::Check<LHCb::MCEcalHitPacker>/CheckEcalHits, DataPacking::Unpack<LHCb::MCHcalHitPacker>/UnpackHcalHits, DataPacking::Check<LHCb::MCHcalHitPacker>/CheckHcalHits
EventLoopMgr            WARNING Unable to locate service "EventSelector"
EventLoopMgr            WARNING No events will be processed from external input.
ApplicationMgr             INFO Application Manager Initialized successfully
ApplicationMgr             INFO Application Manager Started successfully
GaussGen                   INFO Evt 1,  Run 1082,  Nr. in job = 1 with seeds [1082, 1, 2119103972, 0]
MainEventGaussSim          INFO Evt 1,  Run 1082,  Nr. in job = 1 with seeds [1082, 1, 1677927199, 0]
GiGa.GiGaMgr               INFO GiGaRunManager::  Geometry will be extracted from GaussGeo

 FTFP_BERT : new threshold between BERT and FTFP is over the interval
 for pions :   3 to 12 GeV
 for kaons :   3 to 12 GeV
 for proton :  3 to 12 GeV
 for neutron : 3 to 12 GeV

GiGa.ModularPL             INFO  The production cut for gamma is set to 	5 mm
GiGa.ModularPL             INFO  The production cut for electron is set to 	5 mm
GiGa.ModularPL             INFO  The production cut for positron is set to 	5 mm

====================================================================
                  HADRONIC PROCESSES SUMMARY (verbose level 1)

---------------------------------------------------
                           Hadronic Processes for neutron

  Process: hadElastic
        Model:             hElasticCHIPS: 0 eV  ---> 100 TeV
     Cr_sctns:        G4NeutronElasticXS: 0 eV  ---> 100 TeV
     Cr_sctns:            GheishaElastic: 0 eV  ---> 100 TeV

  Process: neutronInelastic
        Model:                      FTFP: 3 GeV ---> 100 TeV
        Model:            BertiniCascade: 0 eV  ---> 12 GeV
     Cr_sctns:      G4NeutronInelasticXS: 0 eV  ---> 100 TeV
     Cr_sctns:       Barashenkov-Glauber: 0 eV  ---> 100 TeV
     Cr_sctns:          GheishaInelastic: 0 eV  ---> 100 TeV

  Process: nCapture
        Model:               nRadCapture: 0 eV  ---> 100 TeV
     Cr_sctns:        G4NeutronCaptureXS: 0 eV  ---> 100 TeV
     Cr_sctns:          GheishaCaptureXS: 0 eV  ---> 100 TeV

  Process: nKiller

---------------------------------------------------
                           Hadronic Processes for GenericIon

  Process: ionInelastic
        Model:  Binary Light Ion Cascade: 0 eV /n ---> 4 GeV/n
        Model:                      FTFP: 2 GeV/n ---> 100 TeV/n
     Cr_sctns: Glauber-Gribov nucleus nucleus: 0 eV  ---> 2.88022e+295 J
     Cr_sctns:          GheishaInelastic: 0 eV  ---> 100 TeV

---------------------------------------------------
                           Hadronic Processes for He3

  Process: He3Inelastic
        Model:  Binary Light Ion Cascade: 0 eV /n ---> 4 GeV/n
        Model:                      FTFP: 2 GeV/n ---> 100 TeV/n
     Cr_sctns: Glauber-Gribov nucleus nucleus: 0 eV  ---> 2.88022e+295 J
     Cr_sctns:          GheishaInelastic: 0 eV  ---> 100 TeV

  Process: hadElastic
        Model:              hElasticLHEP: 0 eV /n ---> 100 TeV/n
     Cr_sctns: Glauber-Gribov nucleus nucleus: 0 eV  ---> 2.88022e+295 J
     Cr_sctns:            GheishaElastic: 0 eV  ---> 100 TeV

---------------------------------------------------
                           Hadronic Processes for alpha

  Process: alphaInelastic
        Model:  Binary Light Ion Cascade: 0 eV /n ---> 4 GeV/n
        Model:                      FTFP: 2 GeV/n ---> 100 TeV/n
     Cr_sctns: Glauber-Gribov nucleus nucleus: 0 eV  ---> 2.88022e+295 J
     Cr_sctns:          GheishaInelastic: 0 eV  ---> 100 TeV

  Process: hadElastic
        Model:              hElasticLHEP: 0 eV /n ---> 100 TeV/n
     Cr_sctns:            GheishaElastic: 0 eV  ---> 100 TeV

---------------------------------------------------
                           Hadronic Processes for anti_He3

  Process: hadElastic
        Model:              hElasticLHEP: 0 eV /n ---> 100.1 MeV/n
        Model:              AntiAElastic: 100 MeV/n ---> 100 TeV/n
     Cr_sctns:              AntiAGlauber: 0 eV  ---> 2.88022e+295 J
     Cr_sctns:            GheishaElastic: 0 eV  ---> 100 TeV

  Process: anti_He3Inelastic
        Model:                      FTFP: 0 eV /n ---> 100 TeV/n
     Cr_sctns:              AntiAGlauber: 0 eV  ---> 2.88022e+295 J
     Cr_sctns:          GheishaInelastic: 0 eV  ---> 100 TeV

  Process: hFritiofCaptureAtRest

---------------------------------------------------
                           Hadronic Processes for anti_alpha

  Process: hadElastic
        Model:              hElasticLHEP: 0 eV /n ---> 100.1 MeV/n
        Model:              AntiAElastic: 100 MeV/n ---> 100 TeV/n
     Cr_sctns:              AntiAGlauber: 0 eV  ---> 2.88022e+295 J
     Cr_sctns:            GheishaElastic: 0 eV  ---> 100 TeV

  Process: anti_alphaInelastic
        Model:                      FTFP: 0 eV /n ---> 100 TeV/n
     Cr_sctns:              AntiAGlauber: 0 eV  ---> 2.88022e+295 J
     Cr_sctns:          GheishaInelastic: 0 eV  ---> 100 TeV

  Process: hFritiofCaptureAtRest

---------------------------------------------------
                           Hadronic Processes for anti_deuteron

  Process: hadElastic
        Model:              hElasticLHEP: 0 eV /n ---> 100.1 MeV/n
        Model:              AntiAElastic: 100 MeV/n ---> 100 TeV/n
     Cr_sctns:              AntiAGlauber: 0 eV  ---> 2.88022e+295 J
     Cr_sctns:            GheishaElastic: 0 eV  ---> 100 TeV

  Process: anti_deuteronInelastic
        Model:                      FTFP: 0 eV /n ---> 100 TeV/n
     Cr_sctns:              AntiAGlauber: 0 eV  ---> 2.88022e+295 J
     Cr_sctns:          GheishaInelastic: 0 eV  ---> 100 TeV

  Process: hFritiofCaptureAtRest

---------------------------------------------------
                           Hadronic Processes for anti_neutron

  Process: hadElastic
        Model:              hElasticLHEP: 0 eV  ---> 100 TeV
     Cr_sctns:            GheishaElastic: 0 eV  ---> 100 TeV

  Process: anti_neutronInelastic
        Model:                      FTFP: 0 eV  ---> 100 TeV
     Cr_sctns:              AntiAGlauber: 0 eV  ---> 2.88022e+295 J
     Cr_sctns:          GheishaInelastic: 0 eV  ---> 100 TeV

---------------------------------------------------
                           Hadronic Processes for anti_proton

  Process: hadElastic
        Model:              hElasticLHEP: 0 eV  ---> 100.1 MeV
        Model:              AntiAElastic: 100 MeV ---> 100 TeV
     Cr_sctns:              AntiAGlauber: 0 eV  ---> 2.88022e+295 J
     Cr_sctns:            GheishaElastic: 0 eV  ---> 100 TeV

  Process: anti_protonInelastic
        Model:                      FTFP: 0 eV  ---> 100 TeV
     Cr_sctns:              AntiAGlauber: 0 eV  ---> 2.88022e+295 J
     Cr_sctns:          GheishaInelastic: 0 eV  ---> 100 TeV

  Process: hFritiofCaptureAtRest

---------------------------------------------------
                           Hadronic Processes for anti_triton

  Process: hadElastic
        Model:              hElasticLHEP: 0 eV /n ---> 100.1 MeV/n
        Model:              AntiAElastic: 100 MeV/n ---> 100 TeV/n
     Cr_sctns:              AntiAGlauber: 0 eV  ---> 2.88022e+295 J
     Cr_sctns:            GheishaElastic: 0 eV  ---> 100 TeV

  Process: anti_tritonInelastic
        Model:                      FTFP: 0 eV /n ---> 100 TeV/n
     Cr_sctns:              AntiAGlauber: 0 eV  ---> 2.88022e+295 J
     Cr_sctns:          GheishaInelastic: 0 eV  ---> 100 TeV

  Process: hFritiofCaptureAtRest

---------------------------------------------------
                           Hadronic Processes for deuteron

  Process: dInelastic
        Model:  Binary Light Ion Cascade: 0 eV /n ---> 4 GeV/n
        Model:                      FTFP: 2 GeV/n ---> 100 TeV/n
     Cr_sctns: Glauber-Gribov nucleus nucleus: 0 eV  ---> 2.88022e+295 J
     Cr_sctns:          GheishaInelastic: 0 eV  ---> 100 TeV

  Process: hadElastic
        Model:              hElasticLHEP: 0 eV /n ---> 100 TeV/n
     Cr_sctns:            GheishaElastic: 0 eV  ---> 100 TeV

---------------------------------------------------
                           Hadronic Processes for e+

  Process: positronNuclear
        Model:   G4ElectroVDNuclearModel: 0 eV  ---> 1 PeV
     Cr_sctns:          ElectroNuclearXS: 0 eV  ---> 100 TeV
     Cr_sctns:          GheishaInelastic: 0 eV  ---> 100 TeV

---------------------------------------------------
                           Hadronic Processes for e-

  Process: electronNuclear
        Model:   G4ElectroVDNuclearModel: 0 eV  ---> 1 PeV
     Cr_sctns:          ElectroNuclearXS: 0 eV  ---> 100 TeV
     Cr_sctns:          GheishaInelastic: 0 eV  ---> 100 TeV

---------------------------------------------------
                           Hadronic Processes for gamma

  Process: photonNuclear
        Model:            BertiniCascade: 0 eV  ---> 3.5 GeV
        Model:           TheoFSGenerator: 3 GeV ---> 100 TeV
     Cr_sctns:            PhotoNuclearXS: 0 eV  ---> 100 TeV
     Cr_sctns:          GheishaInelastic: 0 eV  ---> 100 TeV

---------------------------------------------------
                           Hadronic Processes for kaon+

  Process: hadElastic
        Model:              hElasticLHEP: 0 eV  ---> 100 TeV
     Cr_sctns:            Glauber-Gribov: 0 eV  ---> 2.88022e+295 J
     Cr_sctns:            GheishaElastic: 0 eV  ---> 100 TeV

  Process: kaon+Inelastic
        Model:                      FTFP: 3 GeV ---> 100 TeV
        Model:            BertiniCascade: 0 eV  ---> 12 GeV
     Cr_sctns:            Glauber-Gribov: 0 eV  ---> 2.88022e+295 J
     Cr_sctns:  ChipsKaonPlusInelasticXS: 0 eV  ---> 100 TeV
     Cr_sctns:          GheishaInelastic: 0 eV  ---> 100 TeV

---------------------------------------------------
                           Hadronic Processes for kaon-

  Process: hadElastic
        Model:              hElasticLHEP: 0 eV  ---> 100 TeV
     Cr_sctns:            Glauber-Gribov: 0 eV  ---> 2.88022e+295 J
     Cr_sctns:            GheishaElastic: 0 eV  ---> 100 TeV

  Process: kaon-Inelastic
        Model:                      FTFP: 3 GeV ---> 100 TeV
        Model:            BertiniCascade: 0 eV  ---> 12 GeV
     Cr_sctns:            Glauber-Gribov: 0 eV  ---> 2.88022e+295 J
     Cr_sctns: ChipsKaonMinusInelasticXS: 0 eV  ---> 100 TeV
     Cr_sctns:          GheishaInelastic: 0 eV  ---> 100 TeV

  Process: hBertiniCaptureAtRest

---------------------------------------------------
                           Hadronic Processes for lambda

  Process: hadElastic
        Model:              hElasticLHEP: 0 eV  ---> 100 TeV
     Cr_sctns:            GheishaElastic: 0 eV  ---> 100 TeV

  Process: lambdaInelastic
        Model:            BertiniCascade: 0 eV  ---> 6 GeV
        Model:                      FTFP: 2 GeV ---> 100 TeV
     Cr_sctns:   ChipsHyperonInelasticXS: 0 eV  ---> 100 TeV
     Cr_sctns:          GheishaInelastic: 0 eV  ---> 100 TeV

---------------------------------------------------
                           Hadronic Processes for mu+

  Process: muonNuclear
        Model:      G4MuonVDNuclearModel: 0 eV  ---> 1 PeV
     Cr_sctns:     KokoulinMuonNuclearXS: 0 eV  ---> 100 TeV

---------------------------------------------------
                           Hadronic Processes for mu-

  Process: muonNuclear
        Model:      G4MuonVDNuclearModel: 0 eV  ---> 1 PeV
     Cr_sctns:     KokoulinMuonNuclearXS: 0 eV  ---> 100 TeV

  Process: muMinusCaptureAtRest

---------------------------------------------------
                           Hadronic Processes for pi+

  Process: hadElastic
        Model:              hElasticLHEP: 0 eV  ---> 1.0001 GeV
        Model:           hElasticGlauber: 1 GeV ---> 100 TeV
     Cr_sctns:       Barashenkov-Glauber: 0 eV  ---> 100 TeV
     Cr_sctns:            GheishaElastic: 0 eV  ---> 100 TeV

  Process: pi+Inelastic
        Model:                      FTFP: 3 GeV ---> 100 TeV
        Model:            BertiniCascade: 0 eV  ---> 12 GeV
     Cr_sctns:      G4CrossSectionPairGG: 0 eV  ---> 100 TeV
                         G4CrossSectionPairGG: G4PiNuclearCrossSection cross sections
                           below 91 GeV, Glauber-Gribov above
     Cr_sctns:          GheishaInelastic: 0 eV  ---> 100 TeV

---------------------------------------------------
                           Hadronic Processes for pi-

  Process: hadElastic
        Model:              hElasticLHEP: 0 eV  ---> 1.0001 GeV
        Model:           hElasticGlauber: 1 GeV ---> 100 TeV
     Cr_sctns:       Barashenkov-Glauber: 0 eV  ---> 100 TeV
     Cr_sctns:            GheishaElastic: 0 eV  ---> 100 TeV

  Process: pi-Inelastic
        Model:                      FTFP: 3 GeV ---> 100 TeV
        Model:            BertiniCascade: 0 eV  ---> 12 GeV
     Cr_sctns:      G4CrossSectionPairGG: 0 eV  ---> 100 TeV
                         G4CrossSectionPairGG: G4PiNuclearCrossSection cross sections
                           below 91 GeV, Glauber-Gribov above
     Cr_sctns:          GheishaInelastic: 0 eV  ---> 100 TeV

  Process: hBertiniCaptureAtRest

---------------------------------------------------
                           Hadronic Processes for proton

  Process: hadElastic
        Model:             hElasticCHIPS: 0 eV  ---> 100 TeV
     Cr_sctns:      ChipsProtonElasticXS: 0 eV  ---> 100 TeV
     Cr_sctns:            GheishaElastic: 0 eV  ---> 100 TeV

  Process: protonInelastic
        Model:                      FTFP: 3 GeV ---> 100 TeV
        Model:            BertiniCascade: 0 eV  ---> 12 GeV
     Cr_sctns:       Barashenkov-Glauber: 0 eV  ---> 100 TeV
     Cr_sctns:          GheishaInelastic: 0 eV  ---> 100 TeV

---------------------------------------------------
                           Hadronic Processes for triton

  Process: tInelastic
        Model:  Binary Light Ion Cascade: 0 eV /n ---> 4 GeV/n
        Model:                      FTFP: 2 GeV/n ---> 100 TeV/n
     Cr_sctns: Glauber-Gribov nucleus nucleus: 0 eV  ---> 2.88022e+295 J
     Cr_sctns:          GheishaInelastic: 0 eV  ---> 100 TeV

  Process: hadElastic
        Model:              hElasticLHEP: 0 eV /n ---> 100 TeV/n
     Cr_sctns:            GheishaElastic: 0 eV  ---> 100 TeV

================================================================
GiGaGetMainEvent           INFO Number of extracted MCParticles 'MC/Particles' 	1
GiGaGetMainEvent           INFO Number of extracted MCVertices  'MC/Vertices'  	2
MainEventGaussSim          INFO Evt 2,  Run 1082,  Nr. in job = 2 with seeds [1082, 2, 1044128089, 0]
GiGaGetMainEvent           INFO Number of extracted MCParticles 'MC/Particles' 	1
GiGaGetMainEvent           INFO Number of extracted MCVertices  'MC/Vertices'  	2
MainEventGaussSim          INFO Evt 3,  Run 1082,  Nr. in job = 3 with seeds [1082, 3, 790725412, 0]
GiGaGetMainEvent           INFO Number of extracted MCParticles 'MC/Particles' 	1
GiGaGetMainEvent           INFO Number of extracted MCVertices  'MC/Vertices'  	2
MainEventGaussSim          INFO Evt 4,  Run 1082,  Nr. in job = 4 with seeds [1082, 4, 1633773475, 0]
GiGaGetMainEvent           INFO Number of extracted MCParticles 'MC/Particles' 	1
GiGaGetMainEvent           INFO Number of extracted MCVertices  'MC/Vertices'  	2
MainEventGaussSim          INFO Evt 5,  Run 1082,  Nr. in job = 5 with seeds [1082, 5, 103049051, 0]
GiGaGetMainEvent           INFO Number of extracted MCParticles 'MC/Particles' 	1
GiGaGetMainEvent           INFO Number of extracted MCVertices  'MC/Vertices'  	2
MainEventGaussSim          INFO Evt 6,  Run 1082,  Nr. in job = 6 with seeds [1082, 6, 733772902, 0]
GiGaGetMainEvent           INFO Number of extracted MCParticles 'MC/Particles' 	1
GiGaGetMainEvent           INFO Number of extracted MCVertices  'MC/Vertices'  	2
MainEventGaussSim          INFO Evt 7,  Run 1082,  Nr. in job = 7 with seeds [1082, 7, 494329819, 0]
GiGaGetMainEvent           INFO Number of extracted MCParticles 'MC/Particles' 	1
GiGaGetMainEvent           INFO Number of extracted MCVertices  'MC/Vertices'  	2
MainEventGaussSim          INFO Evt 8,  Run 1082,  Nr. in job = 8 with seeds [1082, 8, 1086315665, 0]
GiGaGetMainEvent           INFO Number of extracted MCParticles 'MC/Particles' 	1
GiGaGetMainEvent           INFO Number of extracted MCVertices  'MC/Vertices'  	2
MainEventGaussSim          INFO Evt 9,  Run 1082,  Nr. in job = 9 with seeds [1082, 9, 1327397198, 0]
GiGaGetMainEvent           INFO Number of extracted MCParticles 'MC/Particles' 	3
GiGaGetMainEvent           INFO Number of extracted MCVertices  'MC/Vertices'  	4
MainEventGaussSim          INFO Evt 10,  Run 1082,  Nr. in job = 10 with seeds [1082, 10, 2062307553, 0]
GiGaGetMainEvent           INFO Number of extracted MCParticles 'MC/Particles' 	1
GiGaGetMainEvent           INFO Number of extracted MCVertices  'MC/Vertices'  	2
ApplicationMgr             INFO Application Manager Stopped successfully
GaussGen                SUCCESS ==================================================================
GaussGen                SUCCESS 10 events processed
GaussGen                SUCCESS ==================================================================
ParticleGun                INFO **************************************************
ParticleGun                INFO ***********   Generation counters   **************
Number of generated events : 10
Number of generated particles : 10
Number of accepted events : 10
Number of particles in accepted events : 10

GenMonitorAlg              INFO
======================== Generators Statistics ====================
=                                                                 =
= Number of particles generated: 10
= Number of events: 10
= Mean multiplicity: 1
=                                                                 =
= Number of pseudo stable particles generated: 10
= Number of events: 10
= Mean pseudo stable multiplicity: 1
=                                                                 =
= Number of charged stable particles generated: 0
= Number of events: 10
= Mean charged stable multiplicity: 0
=                                                                 =
= Number of charged stable particles in LHCb eta 0
= Number of events: 10
= Mean charged stable multiplicity in LHCb eta: 0
=                                                                 =
===================================================================
GenMonitorAlg           SUCCESS Booked 21 Histogram(s) : 1D=19 2D=2
MainEventGaussSim       SUCCESS ==================================================================
MainEventGaussSim       SUCCESS 10 events processed
MainEventGaussSim       SUCCESS ==================================================================
MCPrsHitPacker          SUCCESS Number of counters : 1
 |    Counter                                      |     #     |    sum     | mean/eff^* | rms/err^*  |     min     |     max     |
 | "# PackedData"                                  |        10 |        425 |     42.500 |     32.364 |      6.0000 |      114.00 |
MCSpdHitPacker          SUCCESS Number of counters : 1
 |    Counter                                      |     #     |    sum     | mean/eff^* | rms/err^*  |     min     |     max     |
 | "# PackedData"                                  |        10 |        114 |     11.400 |     11.209 |      0.0000 |      36.000 |
MCEcalHitPacker         SUCCESS Number of counters : 1
 |    Counter                                      |     #     |    sum     | mean/eff^* | rms/err^*  |     min     |     max     |
 | "# PackedData"                                  |        10 |        390 |     39.000 |     22.503 |      19.000 |      94.000 |
MCHcalHitPacker         SUCCESS Number of counters : 1
 |    Counter                                      |     #     |    sum     | mean/eff^* | rms/err^*  |     min     |     max     |
 | "# PackedData"                                  |        10 |         26 |     2.6000 |     1.8547 |      0.0000 |      6.0000 |
SpdMonitor              SUCCESS Booked 19 Histogram(s) : 1D=19
PrsMonitor              SUCCESS Booked 19 Histogram(s) : 1D=19
EcalMonitor             SUCCESS Booked 19 Histogram(s) : 1D=19
HcalMonitor             SUCCESS Booked 16 Histogram(s) : 1D=16
UnpackSpdHits           SUCCESS Number of counters : 1
 |    Counter                                      |     #     |    sum     | mean/eff^* | rms/err^*  |     min     |     max     |
 | "# UnPackedData"                                |        10 |        114 |     11.400 |     11.209 |      0.0000 |      36.000 |
CheckSpdHits            SUCCESS Number of counters : 6
 |    Counter                                      |     #     |    sum     | mean/eff^* | rms/err^*  |     min     |     max     |
 | "Diff.    - Energy"                             |       114 |0.0003067092 | 2.6904e-06 | 2.7379e-05 | -4.9472e-05 |  4.8800e-05 |
 | "Diff.    - TOF"                                |       114 |          0 |     0.0000 |     0.0000 |      0.0000 |      0.0000 |
 | "Original - Energy"                             |       114 |   26.74731 |    0.23463 |    0.55256 |  8.7790e-05 |      4.1042 |
 | "Original - TOF"                                |       114 |        171 |     1.5000 |     1.7078 |     -1.0000 |      4.0000 |
 | "Unpacked - Energy"                             |       114 |     26.747 |    0.23462 |    0.55256 |  0.00010000 |      4.1042 |
 | "Unpacked - TOF"                                |       114 |        171 |     1.5000 |     1.7078 |     -1.0000 |      4.0000 |
UnpackPrsHits           SUCCESS Number of counters : 1
 |    Counter                                      |     #     |    sum     | mean/eff^* | rms/err^*  |     min     |     max     |
 | "# UnPackedData"                                |        10 |        425 |     42.500 |     32.364 |      6.0000 |      114.00 |
CheckPrsHits            SUCCESS Number of counters : 6
 |    Counter                                      |     #     |    sum     | mean/eff^* | rms/err^*  |     min     |     max     |
 | "Diff.    - Energy"                             |       425 |0.0006661642 | 1.5674e-06 | 2.9140e-05 | -4.9987e-05 |  4.9463e-05 |
 | "Diff.    - TOF"                                |       425 |          0 |     0.0000 |     0.0000 |      0.0000 |      0.0000 |
 | "Original - Energy"                             |       425 |   1342.996 |     3.1600 |     17.488 |  2.0727e-05 |      194.97 |
 | "Original - TOF"                                |       425 |        640 |     1.5059 |     1.7055 |     -1.0000 |      4.0000 |
 | "Unpacked - Energy"                             |       425 |   1342.996 |     3.1600 |     17.488 |      0.0000 |      194.97 |
 | "Unpacked - TOF"                                |       425 |        640 |     1.5059 |     1.7055 |     -1.0000 |      4.0000 |
UnpackEcalHits          SUCCESS Number of counters : 1
 |    Counter                                      |     #     |    sum     | mean/eff^* | rms/err^*  |     min     |     max     |
 | "# UnPackedData"                                |        10 |        390 |     39.000 |     22.503 |      19.000 |      94.000 |
CheckEcalHits           SUCCESS Number of counters : 6
 |    Counter                                      |     #     |    sum     | mean/eff^* | rms/err^*  |     min     |     max     |
 | "Diff.    - Energy"                             |       390 |0.0007182758 | 1.8417e-06 | 2.9618e-05 | -4.9887e-05 |  4.9800e-05 |
 | "Diff.    - TOF"                                |       390 |          0 |     0.0000 |     0.0000 |      0.0000 |      0.0000 |
 | "Original - Energy"                             |       390 |   67578.79 |     173.28 |     819.09 |   0.0011891 |      6478.6 |
 | "Original - TOF"                                |       390 |          6 |   0.015385 |    0.12308 |      0.0000 |      1.0000 |
 | "Unpacked - Energy"                             |       390 |   67578.79 |     173.28 |     819.09 |   0.0012000 |      6478.6 |
 | "Unpacked - TOF"                                |       390 |          6 |   0.015385 |    0.12308 |      0.0000 |      1.0000 |
UnpackHcalHits          SUCCESS Number of counters : 1
 |    Counter                                      |     #     |    sum     | mean/eff^* | rms/err^*  |     min     |     max     |
 | "# UnPackedData"                                |        10 |         26 |     2.6000 |     1.8547 |      0.0000 |      6.0000 |
CheckHcalHits           SUCCESS Number of counters : 6
 |    Counter                                      |     #     |    sum     | mean/eff^* | rms/err^*  |     min     |     max     |
 | "Diff.    - Energy"                             |        26 |0.0002359778 | 9.0761e-06 | 2.6353e-05 | -3.9425e-05 |  4.8535e-05 |
 | "Diff.    - TOF"                                |        26 |          0 |     0.0000 |     0.0000 |      0.0000 |      0.0000 |
 | "Original - Energy"                             |        26 |   35.33604 |     1.3591 |     2.1822 |   0.0052606 |      8.2619 |
 | "Original - TOF"                                |        26 |         -7 |   -0.26923 |    0.44356 |     -1.0000 |      0.0000 |
 | "Unpacked - Energy"                             |        26 |    35.3358 |     1.3591 |     2.1821 |   0.0053000 |      8.2619 |
 | "Unpacked - TOF"                                |        26 |         -7 |   -0.26923 |    0.44356 |     -1.0000 |      0.0000 |
RootHistSvc             WARNING no ROOT output file name, Histograms cannot be persistified
EventLoopMgr               INFO Histograms converted successfully according to request.
ToolSvc                    INFO Removing all tools created by ToolSvc
MainEventGaussSim.Mai...SUCCESS Booked 4 Histogram(s) : 1D=4
MainEventGaussSim.Mai...SUCCESS Number of counters : 2
 |    Counter                                      |     #     |    sum     | mean/eff^* | rms/err^*  |     min     |     max     |
 | "Delta Memory/MB"                               |         1 |      0.132 |    0.13200 |     0.0000 |     0.13200 |     0.13200 |
 | "Total Memory/MB"                               |        10 |   10571.46 |     1057.1 |     3.8056 |      1045.7 |      1058.6 |
GaussGen.GaussGenMemory SUCCESS Booked 4 Histogram(s) : 1D=4
GaussGen.GaussGenMemory SUCCESS Number of counters : 2
 |    Counter                                      |     #     |    sum     | mean/eff^* | rms/err^*  |     min     |     max     |
 | "Delta Memory/MB"                               |         1 |      0.132 |    0.13200 |     0.0000 |     0.13200 |     0.13200 |
 | "Total Memory/MB"                               |        10 |   10571.46 |     1057.1 |     3.8056 |      1045.7 |      1058.6 |
ToolSvc.SequencerTime...   INFO --------------------------------------------------------------------------------------------------
ToolSvc.SequencerTime...   INFO This machine has a speed about   2.78 times the speed of a 2.8 GHz Xeon.
ToolSvc.SequencerTime...   INFO Algorithm          (millisec) |    <user> |   <clock> |      min       max    sigma | entries | total (s) |
ToolSvc.SequencerTime...   INFO --------------------------------------------------------------------------------------------------
ToolSvc.SequencerTime...   INFO --------------------------------------------------------------------------------------------------
TimingAuditor.TIMER        INFO --------------------------------------------------------------------------------------------------
TimingAuditor.TIMER        INFO This machine has a speed about   2.78 times the speed of a 2.8 GHz Xeon.
TimingAuditor.TIMER        INFO Algorithm          (millisec) |    <user> |   <clock> |      min       max    sigma | entries | total (s) |
TimingAuditor.TIMER        INFO --------------------------------------------------------------------------------------------------
TimingAuditor.TIMER        INFO EVENT LOOP                    |  1500.000 |  1606.915 |  568.060    9797.6  2878.94 |      10 |    16.069 |
TimingAuditor.TIMER        INFO  GaussSequencer               |  1499.000 |  1604.538 |  568.018    9774.4  2871.62 |      10 |    16.045 |
TimingAuditor.TIMER        INFO   Generator                   |     0.000 |     1.982 |    0.203      17.5     5.46 |      10 |     0.020 |
TimingAuditor.TIMER        INFO    GeneratorSlotMainSeq       |     0.000 |     1.977 |    0.199      17.5     5.46 |      10 |     0.020 |
TimingAuditor.TIMER        INFO     GaussGen                  |     0.000 |     0.289 |    0.112       1.6     0.46 |      10 |     0.003 |
TimingAuditor.TIMER        INFO     ParticleGun               |     0.000 |     0.314 |    0.046       2.7     0.83 |      10 |     0.003 |
TimingAuditor.TIMER        INFO     GenMonitor                |     0.000 |     1.354 |    0.022      13.2     4.16 |      10 |     0.014 |
TimingAuditor.TIMER        INFO      GenMonitorAlg            |     0.000 |     1.335 |    0.017      13.2     4.16 |      10 |     0.013 |
TimingAuditor.TIMER        INFO   Simulation                  |  1499.000 |  1602.546 |  567.724    9756.8  2866.16 |      10 |    16.025 |
TimingAuditor.TIMER        INFO    GiGaStore                  |     0.000 |     0.005 |    0.004       0.0     0.00 |      10 |     0.000 |
TimingAuditor.TIMER        INFO    MainEventSeq               |  1499.000 |  1602.533 |  567.713    9756.8  2866.15 |      10 |    16.025 |
TimingAuditor.TIMER        INFO     MainEventGaussSim         |     0.000 |     0.819 |    0.081       7.3     2.29 |      10 |     0.008 |
TimingAuditor.TIMER        INFO     MainSimulation            |  1499.000 |  1601.695 |  567.595    9749.4  2863.85 |      10 |    16.017 |
TimingAuditor.TIMER        INFO      MakeMainSim              |  1498.000 |  1598.917 |  566.319    9727.8  2857.25 |      10 |    15.989 |
TimingAuditor.TIMER        INFO       GenToSim                |   821.000 |   900.284 |    0.048    9001.8  2846.57 |      10 |     9.003 |
TimingAuditor.TIMER        INFO       GiGaFlush               |   676.000 |   696.565 |  565.478     792.1    77.26 |      10 |     6.966 |
TimingAuditor.TIMER        INFO       GiGaCheckEvent          |     0.000 |     0.008 |    0.006       0.0     0.00 |      10 |     0.000 |
TimingAuditor.TIMER        INFO       SimToMCTruth            |     1.000 |     1.608 |    0.038      15.6     4.91 |      10 |     0.016 |
TimingAuditor.TIMER        INFO       DetectorsHits           |     0.000 |     0.116 |    0.061       0.3     0.08 |      10 |     0.001 |
TimingAuditor.TIMER        INFO        GetSpdHits             |     0.000 |     0.039 |    0.020       0.1     0.03 |      10 |     0.000 |
TimingAuditor.TIMER        INFO        GetPrsHits             |     0.000 |     0.031 |    0.011       0.1     0.04 |      10 |     0.000 |
TimingAuditor.TIMER        INFO        GetEcalHits            |     0.000 |     0.022 |    0.011       0.0     0.01 |      10 |     0.000 |
TimingAuditor.TIMER        INFO        GetHcalHits            |     0.000 |     0.007 |    0.006       0.0     0.00 |      10 |     0.000 |
TimingAuditor.TIMER        INFO       MainEventDataPacking    |     0.000 |     0.275 |    0.118       1.4     0.41 |      10 |     0.003 |
TimingAuditor.TIMER        INFO        PackMCParticle         |     0.000 |     0.078 |    0.028       0.4     0.12 |      10 |     0.001 |
TimingAuditor.TIMER        INFO        PackMCVertex           |     0.000 |     0.035 |    0.013       0.2     0.05 |      10 |     0.000 |
TimingAuditor.TIMER        INFO        MCPrsHitPacker         |     0.000 |     0.096 |    0.017       0.8     0.23 |      10 |     0.001 |
TimingAuditor.TIMER        INFO        MCSpdHitPacker         |     0.000 |     0.012 |    0.009       0.0     0.00 |      10 |     0.000 |
TimingAuditor.TIMER        INFO        MCEcalHitPacker        |     0.000 |     0.014 |    0.010       0.0     0.01 |      10 |     0.000 |
TimingAuditor.TIMER        INFO        MCHcalHitPacker        |     0.000 |     0.010 |    0.009       0.0     0.00 |      10 |     0.000 |
TimingAuditor.TIMER        INFO      SimMonitor               |     1.000 |     2.770 |    0.414      21.6     6.61 |      10 |     0.028 |
TimingAuditor.TIMER        INFO       GiGaGetMainEvent        |     0.000 |     0.089 |    0.052       0.3     0.08 |      10 |     0.001 |
TimingAuditor.TIMER        INFO       MainMCTruthMonitor      |     0.000 |     0.026 |    0.013       0.1     0.03 |      10 |     0.000 |
TimingAuditor.TIMER        INFO       GiGaGetHitsAlg          |     0.000 |     0.014 |    0.009       0.0     0.01 |      10 |     0.000 |
TimingAuditor.TIMER        INFO       DetectorsMonitor        |     0.000 |     0.377 |    0.082       1.7     0.50 |      10 |     0.004 |
TimingAuditor.TIMER        INFO        SpdMonitor             |     0.000 |     0.133 |    0.012       0.5     0.16 |      10 |     0.001 |
TimingAuditor.TIMER        INFO        PrsMonitor             |     0.000 |     0.072 |    0.016       0.5     0.14 |      10 |     0.001 |
TimingAuditor.TIMER        INFO        EcalMonitor            |     0.000 |     0.088 |    0.022       0.4     0.13 |      10 |     0.001 |
TimingAuditor.TIMER        INFO        HcalMonitor            |     0.000 |     0.062 |    0.008       0.3     0.11 |      10 |     0.001 |
TimingAuditor.TIMER        INFO       DataUnpackTest          |     1.000 |     2.242 |    0.195      19.4     6.02 |      10 |     0.022 |
TimingAuditor.TIMER        INFO        UnpackMCVertex         |     0.000 |     0.052 |    0.010       0.3     0.09 |      10 |     0.001 |
TimingAuditor.TIMER        INFO        UnpackMCParticle       |     0.000 |     0.027 |    0.008       0.2     0.06 |      10 |     0.000 |
TimingAuditor.TIMER        INFO        CompareMCVertex        |     0.000 |     0.015 |    0.008       0.1     0.02 |      10 |     0.000 |
TimingAuditor.TIMER        INFO        CompareMCParticle      |     0.000 |     1.806 |    0.005      17.5     5.53 |      10 |     0.018 |
TimingAuditor.TIMER        INFO        UnpackSpdHits          |     0.000 |     0.054 |    0.015       0.4     0.11 |      10 |     0.001 |
TimingAuditor.TIMER        INFO        CheckSpdHits           |     0.000 |     0.033 |    0.005       0.1     0.03 |      10 |     0.000 |
TimingAuditor.TIMER        INFO        UnpackPrsHits          |     0.000 |     0.035 |    0.010       0.1     0.04 |      10 |     0.000 |
TimingAuditor.TIMER        INFO        CheckPrsHits           |     0.000 |     0.078 |    0.015       0.4     0.11 |      10 |     0.001 |
TimingAuditor.TIMER        INFO        UnpackEcalHits         |     0.000 |     0.020 |    0.011       0.1     0.01 |      10 |     0.000 |
TimingAuditor.TIMER        INFO        CheckEcalHits          |     1.000 |     0.044 |    0.024       0.1     0.02 |      10 |     0.000 |
TimingAuditor.TIMER        INFO        UnpackHcalHits         |     0.000 |     0.009 |    0.008       0.0     0.00 |      10 |     0.000 |
TimingAuditor.TIMER        INFO        CheckHcalHits          |     0.000 |     0.008 |    0.003       0.0     0.00 |      10 |     0.000 |
TimingAuditor.TIMER        INFO --------------------------------------------------------------------------------------------------
GiGa.GiGaMgr               INFO GiGaRunManager:: GiGaRunManager Finalization
*****Chrono*****           INFO ****************************************************************************************************
*****Chrono*****           INFO  The Final CPU consumption ( Chrono ) Table (ordered)
*****Chrono*****           INFO ****************************************************************************************************
GiGa.GiGaMgr::process...   INFO Time User   : Tot= 6.58  [s] Ave/Min/Max=0.658(+-0.0517)/ 0.57/ 0.74  [s] #= 10
ChronoStatSvc              INFO Time User   : Tot=   50  [s]                                             #=  1
*****Chrono*****           INFO ****************************************************************************************************
******Stat******           INFO ****************************************************************************************************
******Stat******           INFO  The Final stat Table (not ordered)
******Stat******           INFO ****************************************************************************************************
******Stat******           INFO      Counter     |     #     |    sum     | mean/eff^* | rms/err^*  |     min     |     max     |
******Stat******           INFO  "#Ecal MCHits"  |        10 |        390 |     39.000 |     22.503 |      19.000 |      94.000 |
******Stat******           INFO  "#Hcal MCHits"  |        10 |         26 |     2.6000 |     1.8547 |      0.0000 |      6.0000 |
******Stat******           INFO  "#MCParticles"  |        10 |         12 |     1.2000 |    0.60000 |      1.0000 |      3.0000 |
******Stat******           INFO  "#MCVertices"   |        10 |         22 |     2.2000 |    0.60000 |      2.0000 |      4.0000 |
******Stat******           INFO  "#Prs MCHits"   |        10 |        425 |     42.500 |     32.364 |      6.0000 |      114.00 |
******Stat******           INFO  "#Spd MCHits"   |        10 |        114 |     11.400 |     11.209 |      0.0000 |      36.000 |
******Stat******           INFO ****************************************************************************************************
ChronoStatSvc.finalize()   INFO  Service finalized successfully
ApplicationMgr             INFO Application Manager Finalized successfully
ApplicationMgr             INFO Application Manager Terminated successfully
=======================================================================
======       Pre-compound/De-excitation Physics Parameters     ========
=======================================================================
Type of pre-compound inverse x-section              3
Pre-compound model active                           1
Pre-compound low energy (MeV)                       0.1
Type of de-excitation inverse x-section             3
Type of de-excitation factory                       Evaporation
Number of de-excitation channels                    8
Min excitation energy (keV)                         0.01
Min energy per nucleon for multifragmentation (MeV) 1e+05
Level density (1/MeV)                               0.1
Time limit for long lived isomeres (ns)             1e+12
Internal e- conversion flag                         1
Store e- internal conversion data                   0
Electron internal conversion ID                     2
Correlated gamma emission flag                      0
Max 2J for sampling of angular correlations         10
=======================================================================
#
